{
  "success": "OK",
  "trace": null,
  "payload": {
    "resultCount": 2000,
    "pageCount": 100,
    "page": 1,
    "pageSize": 20,
    "searchType": "PROVEEDOR",
    "priorizado": "EMPRESA NO PRIORIZADA - PRIMER LLAMADO",
    "resultados": [
      {
        "id": 5184171,
        "codigo": "2776-82-COT26",
        "nombre": "SP N°172688, DAO, ADQUISICIÓN DE MATERIALES PARA IMPLEMENTACIÓN DE REJA DE PROTECCIÓN PERIMETRAL EN JUEGO MODULAR INFANTIL UBICADA EN LA PLAZA DE ARMARS DE RENGO, SEGÚN LO ESTABLECIDO EN LOS TERMINOS ",
        "fechaApertura": "2026-02-12T22:14:58.017+00:00",
        "fechaPublicacion": "2026-02-12T22:15:06.917+00:00",
        "fechaCierre": "2026-02-16T12:00:00.000+00:00",
        "organismo": "I MUNICIPALIDAD DE RENGO",
        "unidad": "ADQUISICION MUNICIPAL",
        "idEstado": 2,
        "estado": "Publicada",
        "ofertasRecibidas": 0,
        "misOfertas": 0,
        "accionOcPendiente": false,
        "numeroOfertas": null,
        "totalRegistros": 2000,
        "reseleccion": 0,
        "montoDisponible": 2300000,
        "moneda": "CLP",
        "estadoConvocatoria": "Primer Llamado",
        "fechaCierrePrimerLLamado": "2026-02-16T12:00:00.000+00:00",
        "fechaCierreSegundoLLamado": "2026-02-20T01:44:53.083+00:00"
      },
      {
        "id": 5184180,
        "codigo": "618-10-COT26",
        "nombre": "Reemplazo de artefactos existentes sin eficiencia hídrica por inodoro con eficiencia hídrica en oficina de la Dirección Regional del Libertador General Bernardo O´Higgins",
        "fechaApertura": "2026-02-12T22:06:21.630+00:00",
        "fechaPublicacion": "2026-02-12T22:13:55.500+00:00",
        "fechaCierre": "2026-02-19T21:00:00.000+00:00",
        "organismo": "CORPORACION DE FOMENTO DE LA PRODUCCION",
        "unidad": "Subgerencia de Administración",
        "idEstado": 2,
        "estado": "Publicada",
        "ofertasRecibidas": 0,
        "misOfertas": 0,
        "accionOcPendiente": false,
        "numeroOfertas": null,
        "totalRegistros": 2000,
        "reseleccion": 0,
        "montoDisponible": 6900000,
        "moneda": "CLP",
        "estadoConvocatoria": "Primer Llamado",
        "fechaCierrePrimerLLamado": "2026-02-19T21:00:00.000+00:00",
        "fechaCierreSegundoLLamado": "2026-02-26T19:46:04.500+00:00"
      },
      {
        "id": 5184189,
        "codigo": "948355-76-COT26",
        "nombre": " HOSDIP CL1201 FONENDOSCOPIO ADULTO DESECHABLE.",
        "fechaApertura": "2026-02-12T22:12:46.180+00:00",
        "fechaPublicacion": "2026-02-12T22:13:18.943+00:00",
        "fechaCierre": "2026-02-13T22:20:00.000+00:00",
        "organismo": "FONDO HOSPITAL DE LA DIRECCION DE PREVISION DE CARABINEROS DE CHILE",
        "unidad": "Unidad de Compra Insumos Médicos",
        "idEstado": 2,
        "estado": "Publicada",
        "ofertasRecibidas": 0,
        "misOfertas": 0,
        "accionOcPendiente": false,
        "numeroOfertas": null,
        "totalRegistros": 2000,
        "reseleccion": 0,
        "montoDisponible": 6961100,
        "moneda": "CLP",
        "estadoConvocatoria": "Primer Llamado",
        "fechaCierrePrimerLLamado": "2026-02-13T22:20:00.000+00:00",
        "fechaCierreSegundoLLamado": "2026-02-14T22:26:41.057+00:00"
      },
      {
        "id": 5184188,
        "codigo": "2827-128-COT26",
        "nombre": "SERV. PINTADO Y OTROS - ALUMBRADO PUBLICO",
        "fechaApertura": "2026-02-12T22:10:41.980+00:00",
        "fechaPublicacion": "2026-02-12T22:11:29.460+00:00",
        "fechaCierre": "2026-02-16T12:00:00.000+00:00",
        "organismo": "I MUNICIPALIDAD DE CONSTITUCION",
        "unidad": "MUNICIPAL",
        "idEstado": 2,
        "estado": "Publicada",
        "ofertasRecibidas": 0,
        "misOfertas": 0,
        "accionOcPendiente": false,
        "numeroOfertas": null,
        "totalRegistros": 2000,
        "reseleccion": 0,
        "montoDisponible": 3800000,
        "moneda": "CLP",
        "estadoConvocatoria": "Primer Llamado",
        "fechaCierrePrimerLLamado": "2026-02-16T12:00:00.000+00:00",
        "fechaCierreSegundoLLamado": "2026-02-20T01:48:30.540+00:00"
      },
      {
        "id": 5184184,
        "codigo": "1237853-13-COT26",
        "nombre": "Servicio de arriendo de calistenia",
        "fechaApertura": "2026-02-12T22:08:36.457+00:00",
        "fechaPublicacion": "2026-02-12T22:10:24.367+00:00",
        "fechaCierre": "2026-02-16T19:00:00.000+00:00",
        "organismo": "CORPORACION DEL DEPORTE DE LA FLORIDA",
        "unidad": "CORPORACION DEL DEPORTE DE LA FLORIDA",
        "idEstado": 2,
        "estado": "Publicada",
        "ofertasRecibidas": 0,
        "misOfertas": 0,
        "accionOcPendiente": false,
        "numeroOfertas": null,
        "totalRegistros": 2000,
        "reseleccion": 0,
        "montoDisponible": 3200000,
        "moneda": "CLP",
        "estadoConvocatoria": "Primer Llamado",
        "fechaCierrePrimerLLamado": "2026-02-16T19:00:00.000+00:00",
        "fechaCierreSegundoLLamado": "2026-02-20T15:49:35.633+00:00"
      },
      {
        "id": 5184098,
        "codigo": "2403-126-COT26",
        "nombre": "Adquisición de Material de estimulación – Centro Comunitario de Cuidados",
        "fechaApertura": "2026-02-12T21:11:06.040+00:00",
        "fechaPublicacion": "2026-02-12T22:09:51.127+00:00",
        "fechaCierre": "2026-02-18T19:00:00.000+00:00",
        "organismo": "I MUNICIPALIDAD DE PENALOLEN",
        "unidad": "I.MUNICIPALIDAD DE PEÑALOLEN",
        "idEstado": 2,
        "estado": "Publicada",
        "ofertasRecibidas": 0,
        "misOfertas": 0,
        "accionOcPendiente": false,
        "numeroOfertas": null,
        "totalRegistros": 2000,
        "reseleccion": 0,
        "montoDisponible": 6800000,
        "moneda": "CLP",
        "estadoConvocatoria": "Primer Llamado",
        "fechaCierrePrimerLLamado": "2026-02-18T19:00:00.000+00:00",
        "fechaCierreSegundoLLamado": "2026-02-24T15:50:08.873+00:00"
      },
      {
        "id": 5184182,
        "codigo": "2788-73-COT26",
        "nombre": "MATERIAL DE FERRETERIA-DIRECCION DE ASEO Y ORNATO",
        "fechaApertura": "2026-02-12T22:07:19.887+00:00",
        "fechaPublicacion": "2026-02-12T22:09:32.920+00:00",
        "fechaCierre": "2026-02-13T22:30:00.000+00:00",
        "organismo": "I MUNICIPALIDAD DE PAINE",
        "unidad": "DEPARTAMENTO DE ADQUISICIONES",
        "idEstado": 2,
        "estado": "Publicada",
        "ofertasRecibidas": 0,
        "misOfertas": 0,
        "accionOcPendiente": false,
        "numeroOfertas": null,
        "totalRegistros": 2000,
        "reseleccion": 0,
        "montoDisponible": 380000,
        "moneda": "CLP",
        "estadoConvocatoria": "Primer Llamado",
        "fechaCierrePrimerLLamado": "2026-02-13T22:30:00.000+00:00",
        "fechaCierreSegundoLLamado": "2026-02-14T22:50:27.080+00:00"
      },
      {
        "id": 5184181,
        "codigo": "2827-127-COT26",
        "nombre": "CAPACITACION COMPRAS PUBLICAS - ADMINISTRACION",
        "fechaApertura": "2026-02-12T22:06:51.930+00:00",
        "fechaPublicacion": "2026-02-12T22:07:43.180+00:00",
        "fechaCierre": "2026-02-13T22:15:00.000+00:00",
        "organismo": "I MUNICIPALIDAD DE CONSTITUCION",
        "unidad": "MUNICIPAL",
        "idEstado": 2,
        "estado": "Publicada",
        "ofertasRecibidas": 0,
        "misOfertas": 0,
        "accionOcPendiente": false,
        "numeroOfertas": null,
        "totalRegistros": 2000,
        "reseleccion": 0,
        "montoDisponible": 1300000,
        "moneda": "CLP",
        "estadoConvocatoria": "Primer Llamado",
        "fechaCierrePrimerLLamado": "2026-02-13T22:15:00.000+00:00",
        "fechaCierreSegundoLLamado": "2026-02-14T22:22:16.820+00:00"
      },
      {
        "id": 5184172,
        "codigo": "5658-5-COT26",
        "nombre": "ADQUISICIÓN DE RESMAS DE TAMAÑO OFICIO PARA LA DIRECCIÓN REGIONAL DEL TRABAJO LOS RÍOS Y LAS OFICINAS DE SU JURISDICCIÓN",
        "fechaApertura": "2026-02-12T21:57:03.423+00:00",
        "fechaPublicacion": "2026-02-12T22:07:06.443+00:00",
        "fechaCierre": "2026-02-14T00:00:00.000+00:00",
        "organismo": "DIRECCION DEL TRABAJO",
        "unidad": "Region de Los Rios",
        "idEstado": 2,
        "estado": "Publicada",
        "ofertasRecibidas": 0,
        "misOfertas": 0,
        "accionOcPendiente": false,
        "numeroOfertas": null,
        "totalRegistros": 2000,
        "reseleccion": 0,
        "montoDisponible": 1245573,
        "moneda": "CLP",
        "estadoConvocatoria": "Primer Llamado",
        "fechaCierrePrimerLLamado": "2026-02-14T00:00:00.000+00:00",
        "fechaCierreSegundoLLamado": "2026-02-15T01:52:53.557+00:00"
      },
      {
        "id": 5184179,
        "codigo": "4027-29-COT26",
        "nombre": "Programa \"Cine Bajo las Estrellas en Antuco 2026\"",
        "fechaApertura": "2026-02-12T22:03:58.040+00:00",
        "fechaPublicacion": "2026-02-12T22:05:51.627+00:00",
        "fechaCierre": "2026-02-16T11:30:00.000+00:00",
        "organismo": "I MUNICIPALIDAD DE ANTUCO",
        "unidad": "Unidad De Adquisiciones",
        "idEstado": 2,
        "estado": "Publicada",
        "ofertasRecibidas": 0,
        "misOfertas": 0,
        "accionOcPendiente": false,
        "numeroOfertas": null,
        "totalRegistros": 2000,
        "reseleccion": 0,
        "montoDisponible": 2000000,
        "moneda": "CLP",
        "estadoConvocatoria": "Primer Llamado",
        "fechaCierrePrimerLLamado": "2026-02-16T11:30:00.000+00:00",
        "fechaCierreSegundoLLamado": "2026-02-20T00:54:08.373+00:00"
      },
      {
        "id": 5184178,
        "codigo": "2788-72-COT26",
        "nombre": "CERRADURA DIGITAL - DIRECCION DE ASEO Y ORNATO",
        "fechaApertura": "2026-02-12T22:03:42.397+00:00",
        "fechaPublicacion": "2026-02-12T22:05:03.390+00:00",
        "fechaCierre": "2026-02-13T22:30:00.000+00:00",
        "organismo": "I MUNICIPALIDAD DE PAINE",
        "unidad": "DEPARTAMENTO DE ADQUISICIONES",
        "idEstado": 2,
        "estado": "Publicada",
        "ofertasRecibidas": 0,
        "misOfertas": 0,
        "accionOcPendiente": false,
        "numeroOfertas": null,
        "totalRegistros": 2000,
        "reseleccion": 0,
        "montoDisponible": 95200,
        "moneda": "CLP",
        "estadoConvocatoria": "Primer Llamado",
        "fechaCierrePrimerLLamado": "2026-02-13T22:30:00.000+00:00",
        "fechaCierreSegundoLLamado": "2026-02-14T22:54:56.610+00:00"
      },
      {
        "id": 5184174,
        "codigo": "2429-81-COT26",
        "nombre": "COMPRA DE SILLON DOS CUERPOS Y SITIALES",
        "fechaApertura": "2026-02-12T22:00:22.443+00:00",
        "fechaPublicacion": "2026-02-12T22:04:30.213+00:00",
        "fechaCierre": "2026-02-13T22:30:00.000+00:00",
        "organismo": "I MUNICIPALIDAD DE ANTOFAGASTA",
        "unidad": "I MUNICIPALIDAD DE ANTOFAGASTA - FINANZAS",
        "idEstado": 2,
        "estado": "Publicada",
        "ofertasRecibidas": 0,
        "misOfertas": 0,
        "accionOcPendiente": false,
        "numeroOfertas": null,
        "totalRegistros": 2000,
        "reseleccion": 0,
        "montoDisponible": 2142000,
        "moneda": "CLP",
        "estadoConvocatoria": "Primer Llamado",
        "fechaCierrePrimerLLamado": "2026-02-13T22:30:00.000+00:00",
        "fechaCierreSegundoLLamado": "2026-02-14T22:55:29.787+00:00"
      },
      {
        "id": 5184175,
        "codigo": "1237853-12-COT26",
        "nombre": "Adquisición de poleras ",
        "fechaApertura": "2026-02-12T22:01:26.823+00:00",
        "fechaPublicacion": "2026-02-12T22:03:14.587+00:00",
        "fechaCierre": "2026-02-16T19:00:00.000+00:00",
        "organismo": "CORPORACION DEL DEPORTE DE LA FLORIDA",
        "unidad": "CORPORACION DEL DEPORTE DE LA FLORIDA",
        "idEstado": 2,
        "estado": "Publicada",
        "ofertasRecibidas": 0,
        "misOfertas": 0,
        "accionOcPendiente": false,
        "numeroOfertas": null,
        "totalRegistros": 2000,
        "reseleccion": 0,
        "montoDisponible": 2000000,
        "moneda": "CLP",
        "estadoConvocatoria": "Primer Llamado",
        "fechaCierrePrimerLLamado": "2026-02-16T19:00:00.000+00:00",
        "fechaCierreSegundoLLamado": "2026-02-20T15:56:45.413+00:00"
      },
      {
        "id": 5184176,
        "codigo": "2827-126-COT26",
        "nombre": "SERV. PRODUCCION DEPORTIVA - ACUATLON VERANO 2026",
        "fechaApertura": "2026-02-12T22:01:28.513+00:00",
        "fechaPublicacion": "2026-02-12T22:02:57.810+00:00",
        "fechaCierre": "2026-02-16T12:00:00.000+00:00",
        "organismo": "I MUNICIPALIDAD DE CONSTITUCION",
        "unidad": "MUNICIPAL",
        "idEstado": 2,
        "estado": "Publicada",
        "ofertasRecibidas": 0,
        "misOfertas": 0,
        "accionOcPendiente": false,
        "numeroOfertas": null,
        "totalRegistros": 2000,
        "reseleccion": 0,
        "montoDisponible": 6800000,
        "moneda": "CLP",
        "estadoConvocatoria": "Primer Llamado",
        "fechaCierrePrimerLLamado": "2026-02-16T12:00:00.000+00:00",
        "fechaCierreSegundoLLamado": "2026-02-20T01:57:02.190+00:00"
      },
      {
        "id": 5180358,
        "codigo": "2568-12-COT26",
        "nombre": "Herramientas eléctricas y artículos de seguridad.",
        "fechaApertura": "2026-02-12T21:03:03.313+00:00",
        "fechaPublicacion": "2026-02-12T22:01:38.917+00:00",
        "fechaCierre": "2026-02-16T18:00:00.000+00:00",
        "organismo": "CORP NACIONAL FORESTAL",
        "unidad": "VI Region - U.G. Manejo Del Fuego",
        "idEstado": 2,
        "estado": "Publicada",
        "ofertasRecibidas": 0,
        "misOfertas": 0,
        "accionOcPendiente": false,
        "numeroOfertas": null,
        "totalRegistros": 2000,
        "reseleccion": 0,
        "montoDisponible": 1800000,
        "moneda": "CLP",
        "estadoConvocatoria": "Primer Llamado",
        "fechaCierrePrimerLLamado": "2026-02-16T18:00:00.000+00:00",
        "fechaCierreSegundoLLamado": "2026-02-20T13:58:21.083+00:00"
      },
      {
        "id": 5184173,
        "codigo": "2788-71-COT26",
        "nombre": "PINO SECO CEPILLADO-DIRECCION DE ASEO Y ORNATO",
        "fechaApertura": "2026-02-12T22:01:19.370+00:00",
        "fechaPublicacion": "2026-02-12T22:01:27.683+00:00",
        "fechaCierre": "2026-02-13T22:30:00.000+00:00",
        "organismo": "I MUNICIPALIDAD DE PAINE",
        "unidad": "DEPARTAMENTO DE ADQUISICIONES",
        "idEstado": 2,
        "estado": "Publicada",
        "ofertasRecibidas": 0,
        "misOfertas": 0,
        "accionOcPendiente": false,
        "numeroOfertas": null,
        "totalRegistros": 2000,
        "reseleccion": 0,
        "montoDisponible": 476000,
        "moneda": "CLP",
        "estadoConvocatoria": "Primer Llamado",
        "fechaCierrePrimerLLamado": "2026-02-13T22:30:00.000+00:00",
        "fechaCierreSegundoLLamado": "2026-02-14T22:58:32.317+00:00"
      },
      {
        "id": 5184163,
        "codigo": "2395-136-COT26",
        "nombre": " (Sol. Ped. ) Mesas Plegables y Sillas Plegables, CESFAM Edgardo Enriquez F.",
        "fechaApertura": "2026-02-12T21:51:07.483+00:00",
        "fechaPublicacion": "2026-02-12T22:00:30.483+00:00",
        "fechaCierre": "2026-02-13T22:10:00.000+00:00",
        "organismo": "I MUNICIPALIDAD PEDRO AGUIRRE CERDA",
        "unidad": "DIRECCION DE SALUD",
        "idEstado": 2,
        "estado": "Publicada",
        "ofertasRecibidas": 0,
        "misOfertas": 0,
        "accionOcPendiente": false,
        "numeroOfertas": null,
        "totalRegistros": 2000,
        "reseleccion": 0,
        "montoDisponible": 350000,
        "moneda": "CLP",
        "estadoConvocatoria": "Primer Llamado",
        "fechaCierrePrimerLLamado": "2026-02-13T22:10:00.000+00:00",
        "fechaCierreSegundoLLamado": "2026-02-14T22:19:29.517+00:00"
      },
      {
        "id": 5184162,
        "codigo": "2675-25-COT26",
        "nombre": "ADQUISICIÓN LICENCIAS AUTOCAD + REVIT PARA LABORES SECPLAN ",
        "fechaApertura": "2026-02-12T21:51:08.783+00:00",
        "fechaPublicacion": "2026-02-12T22:00:23.353+00:00",
        "fechaCierre": "2026-02-16T13:30:00.000+00:00",
        "organismo": "I MUNICIPALIDAD DE MOSTAZAL",
        "unidad": "I MUNICIPALIDAD DE MOSTAZAL",
        "idEstado": 2,
        "estado": "Publicada",
        "ofertasRecibidas": 0,
        "misOfertas": 0,
        "accionOcPendiente": false,
        "numeroOfertas": null,
        "totalRegistros": 2000,
        "reseleccion": 0,
        "montoDisponible": 6961000,
        "moneda": "CLP",
        "estadoConvocatoria": "Primer Llamado",
        "fechaCierrePrimerLLamado": "2026-02-16T13:30:00.000+00:00",
        "fechaCierreSegundoLLamado": "2026-02-20T04:59:36.647+00:00"
      },
      {
        "id": 5184169,
        "codigo": "1703-41-COT26",
        "nombre": "Adquisición de cintas de glucosa para Servicios Clínicos del Hospital Dr. Mario Sánchez Vergara.",
        "fechaApertura": "2026-02-12T21:55:24.690+00:00",
        "fechaPublicacion": "2026-02-12T21:58:45.980+00:00",
        "fechaCierre": "2026-02-16T21:00:00.000+00:00",
        "organismo": "HOSPITAL DR MARIO SANCHEZ VERGARA LA CALERA",
        "unidad": "Hospital Dr. Mario Sánchez Vergara de La Calera",
        "idEstado": 2,
        "estado": "Publicada",
        "ofertasRecibidas": 0,
        "misOfertas": 0,
        "accionOcPendiente": false,
        "numeroOfertas": null,
        "totalRegistros": 2000,
        "reseleccion": 0,
        "montoDisponible": 6000000,
        "moneda": "CLP",
        "estadoConvocatoria": "Primer Llamado",
        "fechaCierrePrimerLLamado": "2026-02-16T21:00:00.000+00:00",
        "fechaCierreSegundoLLamado": "2026-02-20T20:01:14.020+00:00"
      },
      {
        "id": 5184164,
        "codigo": "1237853-11-COT26",
        "nombre": "Arriendo de pantalla led",
        "fechaApertura": "2026-02-12T21:52:01.147+00:00",
        "fechaPublicacion": "2026-02-12T21:57:14.693+00:00",
        "fechaCierre": "2026-02-16T19:00:00.000+00:00",
        "organismo": "CORPORACION DEL DEPORTE DE LA FLORIDA",
        "unidad": "CORPORACION DEL DEPORTE DE LA FLORIDA",
        "idEstado": 2,
        "estado": "Publicada",
        "ofertasRecibidas": 0,
        "misOfertas": 0,
        "accionOcPendiente": false,
        "numeroOfertas": null,
        "totalRegistros": 2000,
        "reseleccion": 0,
        "montoDisponible": 800000,
        "moneda": "CLP",
        "estadoConvocatoria": "Primer Llamado",
        "fechaCierrePrimerLLamado": "2026-02-16T19:00:00.000+00:00",
        "fechaCierreSegundoLLamado": "2026-02-20T16:02:45.307+00:00"
      }
    ]
  },
  "errores": null
}